[
{
  "model": "lara_processes.methodclass",
  "pk": 1,
  "fields": {
    "method_class": "test_eval",
    "description": ""
  }
},
{
  "model": "lara_processes.methodclass",
  "pk": 2,
  "fields": {
    "method_class": "machinelearning",
    "description": ""
  }
}
]
