[
{
  "model": "lara_processes.procedureinstance",
  "pk": 1,
  "fields": {
    "namespace": 1,
    "name": "eval-demo1",
    "name_full": "de.unigreifswald.biochem.akb.eval-demo1",
    "proc_class": 1,
    "URI": "",
    "version": "",
    "parameters": "",
    "state": null,
    "icon": "",
    "description": "",
    "remarks": "",
    "procedure_ref": 1,
    "procedure": "# very simple evaluation procedure        \r\n\r\nnamespace = \"de.unigreifswald.biochem.akb\" \r\n\r\nlogging.debug(\"test eval procedure instance1 - eval data in namespace [{}] now ...\".format(namespace) )\r\n\r\nexperiment_name = \"eval-test1-exp\"\r\ncurr_exp = Experiment.objects.get(name=experiment_name)\r\nlogging.debug(f\"rel. exp: {curr_exp.name_full} \")",
    "media_type": null,
    "procedure_file": "",
    "substances": [],
    "polymers": [],
    "mixtures_component": [],
    "mixtures": [],
    "parts": [],
    "containers": [],
    "devices": [],
    "creators": [],
    "literature": [],
    "tags": [],
    "extra_data": []
  }
},
{
  "model": "lara_processes.procedureinstance",
  "pk": 2,
  "fields": {
    "namespace": 1,
    "name": "proteinasek-machinelearning",
    "name_full": "de.unigreifswald.biochem.akb.proteinasek-machinelearning",
    "proc_class": 2,
    "URI": "de.unigreifswald.biochem.akb.proteinasek-machinelearning",
    "version": "",
    "parameters": "",
    "state": null,
    "icon": "",
    "description": "",
    "remarks": "",
    "procedure_ref": null,
    "procedure": "# preparing the data:\r\n# lara-django.py add_substances --prot-seq  BC_5000_20150915_203040_CGE_SeqProtein_Liao_test_data_seq_all.csv\r\n# \r\n\r\n\r\nlogging.debug(\"eval data now{}\".format(1) )\r\n        \r\nnamespace = \"de.unigreifswald.biochem.akb\" + \".\"\r\n\r\nreference_seq_name = namespace + \"proteinasek.reference_seq\"\r\nloci_name = namespace + \"proteinasek.subst_loci\"\r\nsp_mutations_name = namespace + \"proteinasek.sp_mutations\"\r\n\r\nfeatures_name = namespace + \"proteinasek.features\"\r\nact_data_name = namespace + \"proteinasek.activity\"\r\n\r\n\r\n# loading protein activity data\r\nact_data = Data.objects.get(name_full=act_data_name)\r\nact_dat_JSON =  act_data.data_JSON\r\nact_data_lst = json.loads(act_dat_JSON)[0]['activities']\r\nact_data_arr = np.array(act_data_lst)\r\n\r\ny = act_data_arr[:59]  # subset of activity data for machine learning \r\n\r\n# retrieving the sequences\r\n\r\n## reference sequence (= starting point/scaffold of activity improvements)\r\nref_seq = Sequence.objects.all().first().sequence\r\nlogging.debug(\"ref seq: {}\".format(ref_seq) )\r\n\r\n# iterate through sequences and find mutations\r\n# generate mutation dictionary and feature array \r\n\r\nref_seq_select_JSON = substitutions_JSON = Data.objects.get(name_full=reference_seq_name).data_JSON\r\n\r\n#~ logging.debug(\"ref seq selct: {}\".format(ref_seq_select_JSON) )\r\n\r\nref_seq_select = json.loads(ref_seq_select_JSON)[0]['ref_sequence']\r\n\r\nlogging.debug(\"ref seq select - string: {}\".format(ref_seq_select) )\r\n\r\nref_seq_select_arr = np.array(ref_seq_select)\r\nprint (ref_seq_select_arr)\r\n\r\ni = 0\r\nmin_left = 0 \r\nmax_right = len(ref_seq)\r\n\r\nfor curr_seq_dict in Sequence.objects.all():\r\n    curr_seq = curr_seq_dict.sequence\r\n    #~ print(curr_seq)\r\n    if i == 5: break\r\n    i += 1\r\n    \r\n# ... to be continued ...\r\n\r\n# loading loci information\r\n\r\nloci_JSON = Data.objects.get(name_full=loci_name).data_JSON\r\nloci = json.loads(loci_JSON)[0]['loci']\r\nloci_str_arr = np.array(loci)\r\nlogging.debug(\"loci str arr: {}\".format(loci_str_arr) )\r\n\r\n# loading substitutions = single point mutations\r\n\r\nsubstitutions_JSON = Data.objects.get(name_full=sp_mutations_name).data_JSON\r\nsubstitutions = json.loads(substitutions_JSON)[0]['substitutions']\r\n#~ logging.debug(\"subst:{}\".format(substitutions) )\r\nsubstitutions_arr = np.array(substitutions)\r\n\r\n# loading features = X from CSV file stored at a location with path from Database\r\n\r\nact_features_filename = str(Data.objects.get(name_full=features_name).filename)\r\nact_features_filename_full = os.path.join( settings.DJANGO_MEDIA_PATH, act_features_filename )\r\nlogging.debug(\"feat filename {}\".format(act_features_filename_full) )\r\n\r\nX = np.genfromtxt(act_features_filename_full,delimiter=',')[:59,:]\r\n\r\nlogging.debug(\"-------- 1\")\r\nprint(X)\r\n\r\n# one and three letter mutation strings\r\nsubst_names1L = convMutLists2mutStr1LC(ref_seq_select_arr,loci_str_arr,substitutions_arr)\r\n\r\nlogging.debug(\"-------- 2\")\r\n\r\nsubst_names3L = convMutLists2mutStr3LC(ref_seq_select_arr,loci_str_arr,substitutions_arr)\r\n\r\nprint(subst_names3L)\r\n\r\n\r\n\"\"\" Applying linear models to the data\r\n    Lasso (for sparse solutions) -- especially for higher order models with only 59/.../96 measurements the onlye\r\n    reasonable models to be learned are sparse. For the Lasso the right degree of sparsenesse/the right regularization has to be found out. \r\n    The same is true of all other methods (SVR,...).\r\n\"\"\"\r\n\r\nopti_results_1 = findOptimalRegularisation(X,y)\r\n#~ print(opti_results_1)\r\n\r\n# output just for control\r\n#~ alphas, mae_means, mae_stds, mae_log_means, mae_log_stds = summariseResults(opti_results_1)\r\n\r\nalphas, means, stds, means_log, stds_log = summariseResults(opti_results_1)\r\nprint_tabular(alphas,means, stds)\r\nprint('------')\r\nprint_tabular(alphas, means_log, stds_log)\r\n# add saving step into database\r\n\r\n# select best alphas\r\n\r\nmin_alpha_idx = np.where(means_log == np.amin(means_log))[0][0]\r\n#min_alpha_idx[0][0]\r\nopt_alpha1= alphas[min_alpha_idx]\r\ninterval_steps = 10**(np.log10(opt_alpha1)*2)\r\nprint(interval_steps)\r\nalphas = np.arange(opt_alpha1/2, opt_alpha1*2, interval_steps)\r\n\r\n# .... should be further automated ...\r\n\r\n# refine regularisation by using best alphas\r\nopti_results_2 = findOptimalRegularisation(X,y, alphas=alphas) # np.arange(0.04,0.2,0.01)\r\nalpha, means, stds, means_log, stds_log = summariseResults(opti_results_2)\r\nprint_tabular(alpha, means, stds)\r\nprint('-----------')\r\nprint_tabular(alpha, means_log, stds_log)\r\n\r\n# get best alpha\r\n\r\nmin_alpha_idx = np.where(means_log == np.amin(means_log))[0][0]\r\nopt_alpha2 = alpha[min_alpha_idx]\r\n\r\nlogging.debug(\"best alpha after refinement: {}\".format(opt_alpha2) ) \r\n\r\n\r\n# now the core machine learning part\r\n\r\n# learning with a subset of the features, 500 iterations\r\nmean_coefs, std_coefs = calcCoefficientsLasso(X, y, alpha=opt_alpha2, num_iter=500, labels=subst_names3L )\r\n\r\nprint(mean_coefs)\r\n\r\n# selecting good coefficients\r\ncoefSelectBenHochb(mean_coefs, std_coefs, labels=subst_names3L, alpha = 0.2 )\r\n# this shall be returned into the database and displayed as HTML\r\n\r\n        \r\n\"\"\" \r\nIn principle these weights can be used for a variable selection for the rest of the process. It would be wise,\r\nhowever to use a sound statistical procedure instead of the rather adhoc-ish variant of the paper in question.\r\n\r\nGiven the means and standard deviations of the coefficients (or rather given the coefficients for N simulation runs) we can use a false discover rate/Benjamini-Hochberg procedure to guarantee that at most a certain percentage $\\alpha$ of the \r\naccepted coefficients has a true mean<=0. \r\n\r\nOr one could throw out the bad values with an FDR of a certain percentage $\\alpha$ to guarantee that at most $\\alpha$ of the thrown out coefficients should have been kept.\r\n\"\"\"",
    "media_type": null,
    "procedure_file": "",
    "substances": [],
    "polymers": [],
    "mixtures_component": [],
    "mixtures": [],
    "parts": [],
    "containers": [],
    "devices": [],
    "creators": [],
    "literature": [],
    "tags": [],
    "extra_data": []
  }
}
]
