[
{
  "model": "lara_projects.project",
  "pk": 27,
  "fields": {
    "namespace": 1,
    "name": "root",
    "name_full": "de.unigreifswald.biochem.akb.root",
    "title": "root item of project item tree",
    "parent": null,
    "hash_SHA256": null,
    "UUID": "a9879030-883d-4f63-92df-5eb43469c4d5",
    "datetime_start": "2019-10-22T08:30:55.734Z",
    "datetime_added": "1968-12-31T00:00:00Z",
    "status": null,
    "outcome": null,
    "view_selected": false,
    "view_collapsed": false,
    "description": "root item of project item tree",
    "remarks": "root needs to be present",
    "lft": 1,
    "rght": 102,
    "tree_id": 1,
    "level": 0,
    "users": [],
    "experiments": [],
    "data": [],
    "evaluation": [],
    "literature": [],
    "tags": []
  }
},
{
  "model": "lara_projects.project",
  "pk": 52,
  "fields": {
    "namespace": 1,
    "name": "MachineLearning",
    "name_full": "machinelearning",
    "title": "Machine Learning",
    "parent": 27,
    "hash_SHA256": null,
    "UUID": "fcee9329-8e03-418b-b5e8-5efdbef90397",
    "datetime_start": "1968-12-31T00:00:00Z",
    "datetime_added": "2019-10-24T09:55:12Z",
    "status": null,
    "outcome": null,
    "view_selected": false,
    "view_collapsed": false,
    "description": "",
    "remarks": "",
    "lft": 50,
    "rght": 53,
    "tree_id": 1,
    "level": 1,
    "users": [
      1
    ],
    "experiments": [
      2
    ],
    "data": [],
    "evaluation": [],
    "literature": [],
    "tags": []
  }
},
{
  "model": "lara_projects.project",
  "pk": 53,
  "fields": {
    "namespace": 1,
    "name": "ProteinaseKMachineLearning",
    "name_full": "proteinasekmachinelearning",
    "title": "Machine Learning on Proteinase K",
    "parent": 52,
    "hash_SHA256": null,
    "UUID": "ac25c015-1ffa-4615-be77-bba7bf162e0b",
    "datetime_start": "1968-12-31T00:00:00Z",
    "datetime_added": "1968-12-31T00:00:00Z",
    "status": null,
    "outcome": null,
    "view_selected": false,
    "view_collapsed": false,
    "description": "This is a demo Process showing machine learning on Proteinase K\r\npublished by Lui et al.",
    "remarks": "",
    "lft": 51,
    "rght": 52,
    "tree_id": 1,
    "level": 2,
    "users": [],
    "experiments": [
      2
    ],
    "data": [],
    "evaluation": [],
    "literature": [],
    "tags": []
  }
},
{
  "model": "lara_projects.project",
  "pk": 54,
  "fields": {
    "namespace": 1,
    "name": "LARAvalidation",
    "name_full": "de.unigreifswald.biochem.akb.LARAvalidation",
    "title": "LARA Robot Validation",
    "parent": 27,
    "hash_SHA256": null,
    "UUID": "e3091825-cd3c-4e2e-8e17-fc697fa8f453",
    "datetime_start": "2018-12-07T00:00:00Z",
    "datetime_added": "2018-12-07T00:00:00Z",
    "status": null,
    "outcome": null,
    "view_selected": false,
    "view_collapsed": false,
    "description": "LARA Robot validation experiments to evaluate, document and monitor the performance \nof the Greifswald robotic high-troughput protein engineering platform LARA ",
    "remarks": "remarks",
    "lft": 54,
    "rght": 101,
    "tree_id": 1,
    "level": 1,
    "users": [],
    "experiments": [],
    "data": [],
    "evaluation": [],
    "literature": [],
    "tags": []
  }
},
{
  "model": "lara_projects.project",
  "pk": 55,
  "fields": {
    "namespace": 1,
    "name": "LiquidHandlerValidation",
    "name_full": "de.unigreifswald.biochem.akb.LiquidHandlerValidation",
    "title": "Liquid Handler Validation",
    "parent": 54,
    "hash_SHA256": null,
    "UUID": "34e704fd-a778-4391-aa9c-11c5b1462796",
    "datetime_start": "2018-12-07T00:00:00Z",
    "datetime_added": "2018-12-07T00:00:00Z",
    "status": null,
    "outcome": null,
    "view_selected": false,
    "view_collapsed": false,
    "description": "Determination of a feasible system for liquid handler validation",
    "remarks": "remarks",
    "lft": 55,
    "rght": 82,
    "tree_id": 1,
    "level": 2,
    "users": [],
    "experiments": [],
    "data": [],
    "evaluation": [],
    "literature": [],
    "tags": []
  }
},
{
  "model": "lara_projects.project",
  "pk": 56,
  "fields": {
    "namespace": 1,
    "name": "EvaporationControl",
    "name_full": "de.unigreifswald.biochem.akb.EvaporationControl",
    "title": "Evaporation Control",
    "parent": 55,
    "hash_SHA256": null,
    "UUID": "d293d002-a7f3-472c-b659-f2e490b68995",
    "datetime_start": "2018-12-07T00:00:00Z",
    "datetime_added": "2018-12-07T00:00:00Z",
    "status": null,
    "outcome": null,
    "view_selected": false,
    "view_collapsed": false,
    "description": "Determination of evaporation rates for different volumes of water and 1mM and 10 mM NaCl solutions",
    "remarks": "remarks",
    "lft": 56,
    "rght": 57,
    "tree_id": 1,
    "level": 3,
    "users": [],
    "experiments": [],
    "data": [],
    "evaluation": [],
    "literature": [],
    "tags": []
  }
},
{
  "model": "lara_projects.project",
  "pk": 57,
  "fields": {
    "namespace": 1,
    "name": "GravimetricValidation",
    "name_full": "de.unigreifswald.biochem.akb.GravimetricValidation",
    "title": "Gravimetric Validation",
    "parent": 55,
    "hash_SHA256": null,
    "UUID": "2718efc1-3657-407a-9369-b891fda8ced1",
    "datetime_start": "2018-12-12T00:00:00Z",
    "datetime_added": "2018-12-12T00:00:00Z",
    "status": null,
    "outcome": null,
    "view_selected": false,
    "view_collapsed": false,
    "description": "Determination of pipetting accuracy of pipetting robot in lower/mid/high range through measurement of liquid weight in well columns and rows",
    "remarks": "remarks",
    "lft": 58,
    "rght": 73,
    "tree_id": 1,
    "level": 3,
    "users": [
      5
    ],
    "experiments": [
      51,
      52,
      53,
      54,
      55,
      56,
      57,
      58
    ],
    "data": [],
    "evaluation": [],
    "literature": [],
    "tags": []
  }
},
{
  "model": "lara_projects.project",
  "pk": 58,
  "fields": {
    "namespace": 1,
    "name": "OneStepPipetting",
    "name_full": "de.unigreifswald.biochem.akb.OneStepPipetting",
    "title": "One Step Pipetting",
    "parent": 55,
    "hash_SHA256": null,
    "UUID": "6f56896f-5652-4afd-b733-75d04cc43342",
    "datetime_start": "2018-12-14T00:00:00Z",
    "datetime_added": "2018-12-14T00:00:00Z",
    "status": null,
    "outcome": null,
    "view_selected": false,
    "view_collapsed": false,
    "description": "Simult. precision and accuracy measurements utilizing a dual dye system",
    "remarks": "remarks",
    "lft": 74,
    "rght": 81,
    "tree_id": 1,
    "level": 3,
    "users": [],
    "experiments": [],
    "data": [],
    "evaluation": [],
    "literature": [],
    "tags": []
  }
},
{
  "model": "lara_projects.project",
  "pk": 59,
  "fields": {
    "namespace": 1,
    "name": "DualDyeCoClNiSO",
    "name_full": "de.unigreifswald.biochem.akb.DualDyeCoClNiSO",
    "title": "Dye Ratio CoCl2 NiSO4",
    "parent": 58,
    "hash_SHA256": null,
    "UUID": "4ebdd873-f90d-4d3d-9399-7e465308acf3",
    "datetime_start": "2018-12-14T00:00:00Z",
    "datetime_added": "2018-12-14T00:00:00Z",
    "status": null,
    "outcome": null,
    "view_selected": false,
    "view_collapsed": false,
    "description": "Dual dye measurements with CoCl2 and NiSO4 dye pair",
    "remarks": "remarks",
    "lft": 75,
    "rght": 76,
    "tree_id": 1,
    "level": 4,
    "users": [],
    "experiments": [],
    "data": [],
    "evaluation": [],
    "literature": [],
    "tags": []
  }
},
{
  "model": "lara_projects.project",
  "pk": 60,
  "fields": {
    "namespace": 1,
    "name": "DualDyeRhodBNiSO",
    "name_full": "de.unigreifswald.biochem.akb.DualDyeRhodBNiSO",
    "title": "Dye Ratio Rhodamin B NiSO4",
    "parent": 58,
    "hash_SHA256": null,
    "UUID": "7747e375-76f8-4f71-add4-21cc210358ec",
    "datetime_start": "2018-12-19T00:00:00Z",
    "datetime_added": "2018-12-19T00:00:00Z",
    "status": null,
    "outcome": null,
    "view_selected": false,
    "view_collapsed": false,
    "description": "Dual dye measurements with Rhodamin B and NiSO4 dye pair",
    "remarks": "remarks",
    "lft": 77,
    "rght": 78,
    "tree_id": 1,
    "level": 4,
    "users": [],
    "experiments": [],
    "data": [],
    "evaluation": [],
    "literature": [],
    "tags": []
  }
},
{
  "model": "lara_projects.project",
  "pk": 61,
  "fields": {
    "namespace": 1,
    "name": "DualDyeRhodBOrangeG",
    "name_full": "de.unigreifswald.biochem.akb.DualDyeRhodBOrangeG",
    "title": "Dye Ratio Rhodamin B Orange G",
    "parent": 58,
    "hash_SHA256": null,
    "UUID": "ac5e0775-635e-4f7f-8455-4417c8248747",
    "datetime_start": "2019-01-17T00:00:00Z",
    "datetime_added": "2019-01-17T00:00:00Z",
    "status": null,
    "outcome": null,
    "view_selected": false,
    "view_collapsed": false,
    "description": "Dual dye measurements with Rhodamin B and Orange G dye pair",
    "remarks": "remarks",
    "lft": 79,
    "rght": 80,
    "tree_id": 1,
    "level": 4,
    "users": [],
    "experiments": [],
    "data": [],
    "evaluation": [],
    "literature": [],
    "tags": []
  }
},
{
  "model": "lara_projects.project",
  "pk": 62,
  "fields": {
    "namespace": 1,
    "name": "DyeSpectra",
    "name_full": "de.unigreifswald.biochem.akb.DyeSpectra",
    "title": "Dye Spectra",
    "parent": 54,
    "hash_SHA256": null,
    "UUID": "9761907d-af68-42c3-8fca-2ad8364a032d",
    "datetime_start": "2018-12-14T00:00:00Z",
    "datetime_added": "2018-12-14T00:00:00Z",
    "status": null,
    "outcome": null,
    "view_selected": false,
    "view_collapsed": false,
    "description": "Finding best dye pairs for dual dye experiments",
    "remarks": "remarks",
    "lft": 83,
    "rght": 84,
    "tree_id": 1,
    "level": 2,
    "users": [],
    "experiments": [],
    "data": [],
    "evaluation": [],
    "literature": [],
    "tags": []
  }
},
{
  "model": "lara_projects.project",
  "pk": 63,
  "fields": {
    "namespace": 1,
    "name": "SpectrometerValidation",
    "name_full": "de.unigreifswald.biochem.akb.SpectrometerValidation",
    "title": "Spectrometer Validation",
    "parent": 54,
    "hash_SHA256": null,
    "UUID": "c65249eb-1dad-4397-b542-37b87b48ff46",
    "datetime_start": "2018-12-07T00:00:00Z",
    "datetime_added": "2018-12-07T00:00:00Z",
    "status": null,
    "outcome": null,
    "view_selected": false,
    "view_collapsed": false,
    "description": "Determination of a feasible system for spectrometer validation",
    "remarks": "remarks",
    "lft": 85,
    "rght": 92,
    "tree_id": 1,
    "level": 2,
    "users": [],
    "experiments": [],
    "data": [],
    "evaluation": [],
    "literature": [],
    "tags": []
  }
},
{
  "model": "lara_projects.project",
  "pk": 64,
  "fields": {
    "namespace": 1,
    "name": "ValidationVarioskanLUX",
    "name_full": "de.unigreifswald.biochem.akb.ValidationVarioskanLUX",
    "title": "Validation VarioskanLUX",
    "parent": 63,
    "hash_SHA256": null,
    "UUID": "c6396d5f-b1d7-42fa-8340-810375645f85",
    "datetime_start": "2019-01-16T00:00:00Z",
    "datetime_added": "2019-01-16T00:00:00Z",
    "status": null,
    "outcome": null,
    "view_selected": false,
    "view_collapsed": false,
    "description": "Validation of spectrometer VarioskanLUX",
    "remarks": "remarks",
    "lft": 86,
    "rght": 87,
    "tree_id": 1,
    "level": 3,
    "users": [],
    "experiments": [],
    "data": [],
    "evaluation": [],
    "literature": [],
    "tags": []
  }
},
{
  "model": "lara_projects.project",
  "pk": 65,
  "fields": {
    "namespace": 1,
    "name": "ValidationVarioskan",
    "name_full": "de.unigreifswald.biochem.akb.ValidationVarioskan",
    "title": "Validation Varioskan",
    "parent": 63,
    "hash_SHA256": null,
    "UUID": "4ea100cd-26dc-49ff-96e2-6c2d2e8310ea",
    "datetime_start": "2019-01-16T00:00:00Z",
    "datetime_added": "2019-01-16T00:00:00Z",
    "status": null,
    "outcome": null,
    "view_selected": false,
    "view_collapsed": false,
    "description": "Validation of spectrometer Varioskan",
    "remarks": "remarks",
    "lft": 88,
    "rght": 89,
    "tree_id": 1,
    "level": 3,
    "users": [],
    "experiments": [],
    "data": [],
    "evaluation": [],
    "literature": [],
    "tags": []
  }
},
{
  "model": "lara_projects.project",
  "pk": 66,
  "fields": {
    "namespace": 1,
    "name": "ValidationFLUOstarOmega",
    "name_full": "de.unigreifswald.biochem.akb.ValidationFLUOstarOmega",
    "title": "Validation FLUOstar Omega",
    "parent": 63,
    "hash_SHA256": null,
    "UUID": "52e1b4b5-da87-4f7b-bce6-866a91db8b85",
    "datetime_start": "2019-01-16T00:00:00Z",
    "datetime_added": "2019-01-16T00:00:00Z",
    "status": null,
    "outcome": null,
    "view_selected": false,
    "view_collapsed": false,
    "description": "Validation of spectrometer FLUOstar Omega",
    "remarks": "remarks",
    "lft": 90,
    "rght": 91,
    "tree_id": 1,
    "level": 3,
    "users": [],
    "experiments": [],
    "data": [],
    "evaluation": [],
    "literature": [],
    "tags": []
  }
},
{
  "model": "lara_projects.project",
  "pk": 67,
  "fields": {
    "namespace": 1,
    "name": "MultidropValidation",
    "name_full": "de.unigreifswald.biochem.akb.MultidropValidation",
    "title": "Multidrop Validation",
    "parent": 54,
    "hash_SHA256": null,
    "UUID": "1e06fd48-a1b3-44c6-9f8f-d8c5929d3ad3",
    "datetime_start": "2019-02-07T00:00:00Z",
    "datetime_added": "2019-02-07T00:00:00Z",
    "status": null,
    "outcome": null,
    "view_selected": false,
    "view_collapsed": false,
    "description": "Validation of pipetting precision and accuracy of Multidrop Combi tip cassettes",
    "remarks": "remarks",
    "lft": 93,
    "rght": 96,
    "tree_id": 1,
    "level": 2,
    "users": [],
    "experiments": [],
    "data": [],
    "evaluation": [],
    "literature": [],
    "tags": []
  }
},
{
  "model": "lara_projects.project",
  "pk": 68,
  "fields": {
    "namespace": 1,
    "name": "VolumetricValidation",
    "name_full": "de.unigreifswald.biochem.akb.VolumetricValidation",
    "title": "Volumetric Validation",
    "parent": 67,
    "hash_SHA256": null,
    "UUID": "cc44c690-dee5-4b7d-83e9-69021b83e198",
    "datetime_start": "2019-02-11T00:00:00Z",
    "datetime_added": "2019-02-11T00:00:00Z",
    "status": null,
    "outcome": null,
    "view_selected": false,
    "view_collapsed": false,
    "description": "Calibration of Multidrop tip cassettes via volumetric standard tube",
    "remarks": "remarks",
    "lft": 94,
    "rght": 95,
    "tree_id": 1,
    "level": 3,
    "users": [],
    "experiments": [],
    "data": [],
    "evaluation": [],
    "literature": [],
    "tags": []
  }
},
{
  "model": "lara_projects.project",
  "pk": 69,
  "fields": {
    "namespace": 1,
    "name": "GenesisWorkstationValidation",
    "name_full": "de.unigreifswald.biochem.akb.GenesisWorkstationValidation",
    "title": "Genesis Workstation Validation",
    "parent": 54,
    "hash_SHA256": null,
    "UUID": "5e816316-cf31-49b8-a2fc-8e460ed5e595",
    "datetime_start": "2019-02-12T00:00:00Z",
    "datetime_added": "2019-02-12T00:00:00Z",
    "status": null,
    "outcome": null,
    "view_selected": false,
    "view_collapsed": false,
    "description": "Validation of pipetting precision and accuracy of Tecan Genesis Workstation 150",
    "remarks": "remarks",
    "lft": 97,
    "rght": 98,
    "tree_id": 1,
    "level": 2,
    "users": [],
    "experiments": [],
    "data": [],
    "evaluation": [],
    "literature": [],
    "tags": []
  }
},
{
  "model": "lara_projects.project",
  "pk": 70,
  "fields": {
    "namespace": 1,
    "name": "HamiltonLiquidHandlerValidation",
    "name_full": "de.unigreifswald.biochem.akb.HamiltonLiquidHandlerValidation",
    "title": "Hamilton Liquid Handler Validation",
    "parent": 54,
    "hash_SHA256": null,
    "UUID": "8dbcada7-9ab7-4cd6-acfb-3737553560e5",
    "datetime_start": "2019-02-21T00:00:00Z",
    "datetime_added": "2019-02-21T00:00:00Z",
    "status": null,
    "outcome": null,
    "view_selected": false,
    "view_collapsed": false,
    "description": "Validation of pipetting accuracy of Hamilton liquid handler",
    "remarks": "remarks",
    "lft": 99,
    "rght": 100,
    "tree_id": 1,
    "level": 2,
    "users": [],
    "experiments": [],
    "data": [],
    "evaluation": [],
    "literature": [],
    "tags": []
  }
},
{
  "model": "lara_projects.project",
  "pk": 71,
  "fields": {
    "namespace": 1,
    "name": "2019022150ulTip50ulVolume",
    "name_full": "de.unigreifswald.biochem.akb.2019022150ulTip50ulVolume",
    "title": "50 ul Tip 50 ul Volume",
    "parent": 57,
    "hash_SHA256": null,
    "UUID": "a8954bef-c8f1-435f-9fe4-969da4d0884a",
    "datetime_start": "2019-02-21T00:00:00Z",
    "datetime_added": "2019-02-21T00:00:00Z",
    "status": null,
    "outcome": null,
    "view_selected": false,
    "view_collapsed": false,
    "description": "Pipetting of 50 ul water into first column of a 96 well plate with removable row strips and measurement of weight difference between empty and filled row strips",
    "remarks": "remarks",
    "lft": 59,
    "rght": 60,
    "tree_id": 1,
    "level": 4,
    "users": [],
    "experiments": [],
    "data": [],
    "evaluation": [],
    "literature": [],
    "tags": []
  }
},
{
  "model": "lara_projects.project",
  "pk": 72,
  "fields": {
    "namespace": 1,
    "name": "2019022150ulTip3ulVolume",
    "name_full": "de.unigreifswald.biochem.akb.2019022150ulTip3ulVolume",
    "title": "50 ul Tip 3 ul Volume",
    "parent": 57,
    "hash_SHA256": null,
    "UUID": "126fee09-54d5-431e-9a9f-c030bdaee44f",
    "datetime_start": "2019-02-21T00:00:00Z",
    "datetime_added": "2019-02-21T00:00:00Z",
    "status": null,
    "outcome": null,
    "view_selected": false,
    "view_collapsed": false,
    "description": "Pipetting of 3 ul water into first column of a 96 well plate with removable row strips prefilled with 50 ul water and measurement of weight difference between empty and filled row strips",
    "remarks": "remarks",
    "lft": 61,
    "rght": 62,
    "tree_id": 1,
    "level": 4,
    "users": [],
    "experiments": [],
    "data": [],
    "evaluation": [],
    "literature": [],
    "tags": []
  }
},
{
  "model": "lara_projects.project",
  "pk": 73,
  "fields": {
    "namespace": 1,
    "name": "201902211000ulTip500ulVolume",
    "name_full": "de.unigreifswald.biochem.akb.201902211000ulTip500ulVolume",
    "title": "1000 ul Tip 500 ul Volume",
    "parent": 57,
    "hash_SHA256": null,
    "UUID": "55334d1b-973a-4b74-8845-59ce1b3ec2c8",
    "datetime_start": "2019-02-21T00:00:00Z",
    "datetime_added": "2019-02-21T00:00:00Z",
    "status": null,
    "outcome": null,
    "view_selected": false,
    "view_collapsed": false,
    "description": "Pipetting of 500 ul water into 2 mL reaction tubes and measurement of weight difference between empty and filled tubes",
    "remarks": "remarks",
    "lft": 63,
    "rght": 64,
    "tree_id": 1,
    "level": 4,
    "users": [],
    "experiments": [],
    "data": [],
    "evaluation": [],
    "literature": [],
    "tags": []
  }
},
{
  "model": "lara_projects.project",
  "pk": 74,
  "fields": {
    "namespace": 1,
    "name": "201902211000ulTip20ulVolume",
    "name_full": "de.unigreifswald.biochem.akb.201902211000ulTip20ulVolume",
    "title": "1000 ul Tip 20 ul Volume",
    "parent": 57,
    "hash_SHA256": null,
    "UUID": "414b5bc9-25ff-48f4-84b8-8788f3bfa8a9",
    "datetime_start": "2019-02-21T00:00:00Z",
    "datetime_added": "2019-02-21T00:00:00Z",
    "status": null,
    "outcome": null,
    "view_selected": false,
    "view_collapsed": false,
    "description": "Pipetting of 20 ul water into first column of a 96 well plate with removable row strips and measurement of weight difference between empty and filled row strips",
    "remarks": "remarks",
    "lft": 65,
    "rght": 66,
    "tree_id": 1,
    "level": 4,
    "users": [],
    "experiments": [],
    "data": [],
    "evaluation": [],
    "literature": [],
    "tags": []
  }
},
{
  "model": "lara_projects.project",
  "pk": 75,
  "fields": {
    "namespace": 1,
    "name": "2019022150ulTip3ulVolumeSurface",
    "name_full": "de.unigreifswald.biochem.akb.2019022150ulTip3ulVolumeSurface",
    "title": "50 ul Tip 3 ul Volume Surface",
    "parent": 57,
    "hash_SHA256": null,
    "UUID": "8b9d13ca-7fdc-4f54-ba7c-e066bac5adae",
    "datetime_start": "2019-02-21T00:00:00Z",
    "datetime_added": "2019-02-21T00:00:00Z",
    "status": null,
    "outcome": null,
    "view_selected": false,
    "view_collapsed": false,
    "description": "Pipetting of 3 ul water into first column of a 96 well plate with removable row strips and measurement of weight difference between empty and filled row strips. Dispension mode was surface empty tip instead of jet empty tip",
    "remarks": "remarks",
    "lft": 67,
    "rght": 68,
    "tree_id": 1,
    "level": 4,
    "users": [],
    "experiments": [],
    "data": [],
    "evaluation": [],
    "literature": [],
    "tags": []
  }
},
{
  "model": "lara_projects.project",
  "pk": 76,
  "fields": {
    "namespace": 1,
    "name": "2019022150ulTip3ulVolumeSideTouch",
    "name_full": "de.unigreifswald.biochem.akb.2019022150ulTip3ulVolumeSideTouch",
    "title": "50 ul Tip 3 ul Volume Side Touch",
    "parent": 57,
    "hash_SHA256": null,
    "UUID": "6f4c7144-0f42-4df5-89c5-388ccb21e628",
    "datetime_start": "2019-02-21T00:00:00Z",
    "datetime_added": "2019-02-21T00:00:00Z",
    "status": null,
    "outcome": null,
    "view_selected": false,
    "view_collapsed": false,
    "description": "Pipetting of 3 ul water into first column of a 96 well plate with removable row strips and measurement of weight difference between empty and filled row strips. Dispension mode was side touch instead of fixed height",
    "remarks": "remarks",
    "lft": 69,
    "rght": 70,
    "tree_id": 1,
    "level": 4,
    "users": [],
    "experiments": [],
    "data": [],
    "evaluation": [],
    "literature": [],
    "tags": []
  }
},
{
  "model": "lara_projects.project",
  "pk": 77,
  "fields": {
    "namespace": 1,
    "name": "2019022250ulTip50ulVolumeSideTouch",
    "name_full": "de.unigreifswald.biochem.akb.2019022250ulTip50ulVolumeSideTouch",
    "title": "50 ul Tip 50 ul Volume",
    "parent": 57,
    "hash_SHA256": null,
    "UUID": "b8a8a6a7-089e-4d5e-90a5-42b72351e6be",
    "datetime_start": "2019-02-22T00:00:00Z",
    "datetime_added": "2019-02-22T00:00:00Z",
    "status": null,
    "outcome": null,
    "view_selected": false,
    "view_collapsed": false,
    "description": "Pipetting of 50 ul water into first column of a 96 well plate with removable row strips and measurement of weight difference between empty and filled row strips. Dispension mode was side touch instead of fixed height",
    "remarks": "remarks",
    "lft": 71,
    "rght": 72,
    "tree_id": 1,
    "level": 4,
    "users": [],
    "experiments": [],
    "data": [],
    "evaluation": [],
    "literature": [],
    "tags": []
  }
}
]
